0 1
1 10
2 5
3 38
4 19
5 136
6 68
7 34
8 17
9 122
10 61
11 430
12 215
13 1508
14 754
15 377
16 2642
17 1321
18 9250
19 4625
20 32378
21 16189
22 113326
23 56663
24 396644
25 198322
26 99161
27 694130
28 347065
29 2429458
30 1214729
31 8503106
32 4251553
33 29760874
34 14880437
Terminating because series has become too large
